[gd_resource type="SpriteFrames" load_steps=9 format=2]

[ext_resource path="res://Assets/Character/rhino/rhino_run_01.png" type="Texture" id=1]
[ext_resource path="res://Assets/Character/rhino/rhino_run_03.png" type="Texture" id=2]
[ext_resource path="res://Assets/Character/rhino/rhino_idle_02.png" type="Texture" id=3]
[ext_resource path="res://Assets/Character/rhino/rhino_idle_03.png" type="Texture" id=4]
[ext_resource path="res://Assets/Character/rhino/rhino_idle_04.png" type="Texture" id=5]
[ext_resource path="res://Assets/Character/rhino/rhino_run_04.png" type="Texture" id=6]
[ext_resource path="res://Assets/Character/rhino/rhino_idle_01.png" type="Texture" id=7]
[ext_resource path="res://Assets/Character/rhino/rhino_run_02.png" type="Texture" id=8]

[resource]
animations = [ {
"frames": [ ExtResource( 1 ), ExtResource( 8 ), ExtResource( 2 ), ExtResource( 6 ) ],
"loop": true,
"name": "Walk",
"speed": 5.0
}, {
"frames": [ ExtResource( 7 ), ExtResource( 3 ), ExtResource( 4 ), ExtResource( 5 ) ],
"loop": true,
"name": "Idle",
"speed": 5.0
} ]
